# nom jour début fin salle
ARA mardi 8h30 10h30 14-15-508
ARA mardi 10h45 12h45 14-15-508
CODEL mardi 13h45 15h45 24-25-101
CODEL mardi 16h 18h 14-15-508
NMV mercredi 8h30 10h30 14-15-508
NMV mercredi 10h45 12h45 14-15-508
IP mercredi 13h45 17h15 56-66-111
# IP mercredi 13h45 15h45 56-66-111
# IP mercredi 16h 18h 56-66-111
OSEM jeudi 8h30 10h30
OSEM jeudi 10h45 12h45
BDLE vendredi 8h30 10h30
BDLE vendredi 10h45 12h45
IP vendredi 13h45 15h45 56-66-111
IP vendredi 16h 18h 56-66-111

